<svg width="195" height="141" viewBox="0 0 195 141" fill="none" xmlns="http://www.w3.org/2000/svg">
<path d="M24.435 105C23.445 106.08 22.245 107.49 20.835 109.23C19.425 110.94 17.97 112.815 16.47 114.855C14.97 116.865 13.485 118.95 12.015 121.11C10.575 123.24 9.3 125.265 8.19 127.185H24.93V132H1.35V128.445C1.95 127.335 2.64 126.135 3.42 124.845C4.23 123.525 5.085 122.175 5.985 120.795C6.885 119.415 7.815 118.02 8.775 116.61C9.765 115.2 10.74 113.85 11.7 112.56C12.66 111.24 13.59 109.995 14.49 108.825C15.42 107.625 16.29 106.56 17.1 105.63H2.115V100.815H24.435V105ZM50.5459 120.21C50.5459 122.07 50.2759 123.765 49.7359 125.295C49.1959 126.825 48.4309 128.13 47.4409 129.21C46.4509 130.29 45.2509 131.13 43.8409 131.73C42.4609 132.33 40.9309 132.63 39.2509 132.63C37.5709 132.63 36.0409 132.33 34.6609 131.73C33.2809 131.13 32.0959 130.29 31.1059 129.21C30.1159 128.13 29.3359 126.825 28.7659 125.295C28.2259 123.765 27.9559 122.07 27.9559 120.21C27.9559 118.35 28.2259 116.67 28.7659 115.17C29.3359 113.64 30.1159 112.335 31.1059 111.255C32.1259 110.175 33.3259 109.35 34.7059 108.78C36.0859 108.18 37.6009 107.88 39.2509 107.88C40.9009 107.88 42.4159 108.18 43.7959 108.78C45.2059 109.35 46.4059 110.175 47.3959 111.255C48.3859 112.335 49.1509 113.64 49.6909 115.17C50.2609 116.67 50.5459 118.35 50.5459 120.21ZM44.9659 120.21C44.9659 117.87 44.4559 116.025 43.4359 114.675C42.4459 113.295 41.0509 112.605 39.2509 112.605C37.4509 112.605 36.0409 113.295 35.0209 114.675C34.0309 116.025 33.5359 117.87 33.5359 120.21C33.5359 122.58 34.0309 124.455 35.0209 125.835C36.0409 127.215 37.4509 127.905 39.2509 127.905C41.0509 127.905 42.4459 127.215 43.4359 125.835C44.4559 124.455 44.9659 122.58 44.9659 120.21ZM54.8504 120.345C54.8504 118.275 55.1504 116.46 55.7504 114.9C56.3804 113.34 57.2054 112.05 58.2254 111.03C59.2454 109.98 60.4154 109.2 61.7354 108.69C63.0554 108.15 64.4054 107.88 65.7854 107.88C69.0254 107.88 71.5454 108.885 73.3454 110.895C75.1754 112.905 76.0904 115.905 76.0904 119.895C76.0904 120.195 76.0754 120.54 76.0454 120.93C76.0454 121.29 76.0304 121.62 76.0004 121.92H60.4754C60.6254 123.81 61.2854 125.28 62.4554 126.33C63.6554 127.35 65.3804 127.86 67.6304 127.86C68.9504 127.86 70.1504 127.74 71.2304 127.5C72.3404 127.26 73.2104 127.005 73.8404 126.735L74.5604 131.19C74.2604 131.34 73.8404 131.505 73.3004 131.685C72.7904 131.835 72.1904 131.97 71.5004 132.09C70.8404 132.24 70.1204 132.36 69.3404 132.45C68.5604 132.54 67.7654 132.585 66.9554 132.585C64.8854 132.585 63.0854 132.285 61.5554 131.685C60.0254 131.055 58.7654 130.2 57.7754 129.12C56.7854 128.01 56.0504 126.72 55.5704 125.25C55.0904 123.75 54.8504 122.115 54.8504 120.345ZM70.6454 117.915C70.6454 117.165 70.5404 116.46 70.3304 115.8C70.1204 115.11 69.8054 114.525 69.3854 114.045C68.9954 113.535 68.5004 113.145 67.9004 112.875C67.3304 112.575 66.6404 112.425 65.8304 112.425C64.9904 112.425 64.2554 112.59 63.6254 112.92C62.9954 113.22 62.4554 113.625 62.0054 114.135C61.5854 114.645 61.2554 115.23 61.0154 115.89C60.7754 116.55 60.6104 117.225 60.5204 117.915H70.6454ZM81.5934 102.255L87.0384 101.355V108.465H95.4084V113.01H87.0384V122.595C87.0384 124.485 87.3384 125.835 87.9384 126.645C88.5384 127.455 89.5584 127.86 90.9984 127.86C91.9884 127.86 92.8584 127.755 93.6084 127.545C94.3884 127.335 95.0034 127.14 95.4534 126.96L96.3534 131.28C95.7234 131.55 94.8984 131.82 93.8784 132.09C92.8584 132.39 91.6584 132.54 90.2784 132.54C88.5984 132.54 87.1884 132.315 86.0484 131.865C84.9384 131.415 84.0534 130.77 83.3934 129.93C82.7334 129.06 82.2684 128.025 81.9984 126.825C81.7284 125.595 81.5934 124.2 81.5934 122.64V102.255ZM114.082 113.37C113.632 113.22 113.002 113.07 112.192 112.92C111.412 112.74 110.497 112.65 109.447 112.65C108.847 112.65 108.202 112.71 107.512 112.83C106.852 112.95 106.387 113.055 106.117 113.145V132H100.672V109.59C101.722 109.2 103.027 108.84 104.587 108.51C106.177 108.15 107.932 107.97 109.852 107.97C110.212 107.97 110.632 108 111.112 108.06C111.592 108.09 112.072 108.15 112.552 108.24C113.032 108.3 113.497 108.39 113.947 108.51C114.397 108.6 114.757 108.69 115.027 108.78L114.082 113.37ZM140.106 120.21C140.106 122.07 139.836 123.765 139.296 125.295C138.756 126.825 137.991 128.13 137.001 129.21C136.011 130.29 134.811 131.13 133.401 131.73C132.021 132.33 130.491 132.63 128.811 132.63C127.131 132.63 125.601 132.33 124.221 131.73C122.841 131.13 121.656 130.29 120.666 129.21C119.676 128.13 118.896 126.825 118.326 125.295C117.786 123.765 117.516 122.07 117.516 120.21C117.516 118.35 117.786 116.67 118.326 115.17C118.896 113.64 119.676 112.335 120.666 111.255C121.686 110.175 122.886 109.35 124.266 108.78C125.646 108.18 127.161 107.88 128.811 107.88C130.461 107.88 131.976 108.18 133.356 108.78C134.766 109.35 135.966 110.175 136.956 111.255C137.946 112.335 138.711 113.64 139.251 115.17C139.821 116.67 140.106 118.35 140.106 120.21ZM134.526 120.21C134.526 117.87 134.016 116.025 132.996 114.675C132.006 113.295 130.611 112.605 128.811 112.605C127.011 112.605 125.601 113.295 124.581 114.675C123.591 116.025 123.096 117.87 123.096 120.21C123.096 122.58 123.591 124.455 124.581 125.835C125.601 127.215 127.011 127.905 128.811 127.905C130.611 127.905 132.006 127.215 132.996 125.835C134.016 124.455 134.526 122.58 134.526 120.21ZM161.331 120.345C161.331 117.915 160.776 116.025 159.666 114.675C158.586 113.325 156.831 112.65 154.401 112.65C153.891 112.65 153.351 112.68 152.781 112.74C152.241 112.77 151.701 112.86 151.161 113.01V126.465C151.641 126.795 152.271 127.11 153.051 127.41C153.861 127.68 154.716 127.815 155.616 127.815C157.596 127.815 159.036 127.14 159.936 125.79C160.866 124.44 161.331 122.625 161.331 120.345ZM166.911 120.255C166.911 122.055 166.671 123.705 166.191 125.205C165.741 126.705 165.081 127.995 164.211 129.075C163.341 130.155 162.246 130.995 160.926 131.595C159.636 132.195 158.166 132.495 156.516 132.495C155.406 132.495 154.386 132.36 153.456 132.09C152.526 131.82 151.761 131.52 151.161 131.19V140.325H145.716V109.23C146.826 108.93 148.191 108.645 149.811 108.375C151.431 108.105 153.141 107.97 154.941 107.97C156.801 107.97 158.466 108.255 159.936 108.825C161.406 109.395 162.651 110.22 163.671 111.3C164.721 112.35 165.516 113.64 166.056 115.17C166.626 116.67 166.911 118.365 166.911 120.255ZM171.218 120.345C171.218 118.275 171.518 116.46 172.118 114.9C172.748 113.34 173.573 112.05 174.593 111.03C175.613 109.98 176.783 109.2 178.103 108.69C179.423 108.15 180.773 107.88 182.153 107.88C185.393 107.88 187.913 108.885 189.713 110.895C191.543 112.905 192.458 115.905 192.458 119.895C192.458 120.195 192.443 120.54 192.413 120.93C192.413 121.29 192.398 121.62 192.368 121.92H176.843C176.993 123.81 177.653 125.28 178.823 126.33C180.023 127.35 181.748 127.86 183.998 127.86C185.318 127.86 186.518 127.74 187.598 127.5C188.708 127.26 189.578 127.005 190.208 126.735L190.928 131.19C190.628 131.34 190.208 131.505 189.668 131.685C189.158 131.835 188.558 131.97 187.868 132.09C187.208 132.24 186.488 132.36 185.708 132.45C184.928 132.54 184.133 132.585 183.323 132.585C181.253 132.585 179.453 132.285 177.923 131.685C176.393 131.055 175.133 130.2 174.143 129.12C173.153 128.01 172.418 126.72 171.938 125.25C171.458 123.75 171.218 122.115 171.218 120.345ZM187.013 117.915C187.013 117.165 186.908 116.46 186.698 115.8C186.488 115.11 186.173 114.525 185.753 114.045C185.363 113.535 184.868 113.145 184.268 112.875C183.698 112.575 183.008 112.425 182.198 112.425C181.358 112.425 180.623 112.59 179.993 112.92C179.363 113.22 178.823 113.625 178.373 114.135C177.953 114.645 177.623 115.23 177.383 115.89C177.143 116.55 176.978 117.225 176.888 117.915H187.013Z" fill="white"/>
<path fill-rule="evenodd" clip-rule="evenodd" d="M70.3119 30.5296C82.8426 29.6392 95.4525 29.7169 107.964 30.7617L111.201 31.032C117.379 31.5479 122.351 35.2721 123.385 40.1193L140.845 32.7465C142.029 32.2469 143.448 32.252 144.626 32.7602C145.803 33.2684 146.582 34.212 146.699 35.2729L146.831 36.4744C148.317 49.9423 148.317 63.4877 146.831 76.9557L146.699 78.1572C146.582 79.218 145.803 80.1616 144.626 80.6698C143.448 81.178 142.029 81.1832 140.845 80.6835L123.385 73.3107C122.351 78.1579 117.379 81.8822 111.201 82.3981L107.964 82.6684C95.4525 83.7132 82.8426 83.7909 70.3119 82.9005L61.8874 82.3018C55.5394 81.8507 50.4104 77.9963 49.4884 72.9842C47.5039 62.1954 47.5039 51.2346 49.4884 40.4459C50.4104 35.4338 55.5394 31.5794 61.8874 31.1283L70.3119 30.5296ZM124.37 66.7328C124.798 66.7862 125.221 66.896 125.625 67.0664L139.232 72.8125C140.198 62.0946 140.198 51.3355 139.232 40.6176L125.625 46.3636C125.221 46.534 124.798 46.6438 124.37 46.6972C125.117 53.3625 125.117 60.0675 124.37 66.7328Z" fill="white"/>
<rect x="119.482" y="40.6829" width="24.0399" height="32.6696" fill="white"/>
<path d="M97.0044 6.74194C93.4333 6.74194 90.3908 9.41215 90.3908 12.8801C90.3908 15.2725 91.5111 17.2866 92.9958 18.9551C94.4754 20.6178 96.3843 22.0135 98.11 23.1816L101.088 25.1971C101.414 25.4178 101.841 25.4178 102.167 25.1971L105.145 23.1816C106.871 22.0135 108.779 20.6178 110.259 18.9551C111.744 17.2866 112.864 15.2725 112.864 12.8801C112.864 9.41215 109.822 6.74194 106.251 6.74194C104.41 6.74194 102.79 7.60509 101.627 8.72194C100.465 7.60509 98.8452 6.74194 97.0044 6.74194Z" fill="white"/>
<path d="M70.0365 16.0691C68.251 16.0691 66.7298 17.4042 66.7298 19.1382C66.7298 20.3343 67.2899 21.3414 68.0322 22.1757C68.772 23.007 69.7265 23.7049 70.5893 24.2889L72.0781 25.2966C72.2412 25.407 72.455 25.407 72.618 25.2966L74.1068 24.2889C74.9696 23.7049 75.9241 23.007 76.6639 22.1757C77.4062 21.3414 77.9664 20.3343 77.9664 19.1382C77.9664 17.4042 76.4451 16.0691 74.6596 16.0691C73.7392 16.0691 72.9292 16.5007 72.3481 17.0591C71.7669 16.5007 70.9569 16.0691 70.0365 16.0691Z" fill="white"/>
</svg>
